PAIR ID	COHORT	Donor Age	Months post transplantation	HLA ABDR mismatches	allogenomics mismatch score	MDRD_EGFR
16	FRENCH	45	12	5	811	68.8865061
16	FRENCH	45	24	5	811	62.1101922
16	FRENCH	45	36	5	811	65.305648
1	FRENCH	65	12	0	483	67.5621794
1	FRENCH	65	20	0	483	74.6984602
1	FRENCH	65	24	0	483	53.6131238
1	FRENCH	65	36	0	483	52.934306
2	FRENCH	51	12	2	454	53.2845907
2	FRENCH	51	24	2	454	57.2358376
2	FRENCH	51	36	2	454	43.948401
2	FRENCH	51	48	2	454	51.364071
2	FRENCH	51	84	2	454	40.8115737
3	FRENCH	54	12	5	751	23.0301249
3	FRENCH	54	24	5	751	30.9963342
3	FRENCH	54	36	5	751	21.9535767
3	FRENCH	54	48	5	751	29.4167318
4	FRENCH	50	12	4	719	70.4953876
4	FRENCH	50	17	4	719	73.0980414
4	FRENCH	50	24	4	719	68.5887592
4	FRENCH	50	27	4	719	69.3970596
4	FRENCH	50	36	4	719	61.1473796
4	FRENCH	50	4	4	719	69.1264417
4	FRENCH	50	48	4	719	69.6972681
4	FRENCH	50	6	4	719	82.4247762
5	FRENCH	53	12	2	606	49.9980323
5	FRENCH	53	20	2	606	56.8909868
5	FRENCH	53	24	2	606	59.2020797
5	FRENCH	53	31	2	606	42.1440872
5	FRENCH	53	36	2	606	59.7655363
5	FRENCH	53	48	2	606	54.1529932
5	FRENCH	53	60	2	606	53.8258102
5	FRENCH	53	72	2	606	59.6430741
5	FRENCH	53	84	2	606	58.3534932
7	FRENCH	23	12	6	796	72.4311885
7	FRENCH	23	24	6	796	86.8745517
7	FRENCH	23	48	6	796	84.0221981
7	FRENCH	23	84	6	796	42.2993333
7	FRENCH	23	96	6	796	53.1348521
8	FRENCH	35	12	0	533	62.1688746
8	FRENCH	35	18	0	533	69.7356468
8	FRENCH	35	24	0	533	50.4842321
8	FRENCH	35	36	0	533	67.7447752
8	FRENCH	35	48	0	533	33.7772672
9	FRENCH	62	12	2	531	48.3212011
9	FRENCH	62	22	2	531	47.2365539
9	FRENCH	62	24	2	531	48.7095288
9	FRENCH	62	33	2	531	48.7095288
9	FRENCH	62	36	2	531	50.3068186
9	FRENCH	62	48	2	531	57.7562322
10	FRENCH	42	12	3	795	73.1679713
10	FRENCH	42	17	3	795	75.9896564
10	FRENCH	42	24	3	795	67.8264018
10	FRENCH	42	27	3	795	65.5295514
10	FRENCH	42	36	3	795	70.0261684
10	FRENCH	42	39	3	795	75.4406655
24	FRENCH	40	12	2	385	72.1780958
24	FRENCH	40	24	2	385	74.4125551
24	FRENCH	40	36	2	385	81.0315174
24	FRENCH	40	48	2	385	82.3042787
11	FRENCH	59	24	1	454	56.802665
11	FRENCH	59	48	1	454	46.0256808
11	FRENCH	59	60	1	454	36.6735311
11	FRENCH	59	72	1	454	35.5977065
11	FRENCH	59	96	1	454	27.8760039
11	FRENCH	59	36	1	454	42.34191
17	FRENCH	45	72	1	447	46.0394514
17	FRENCH	45	84	1	447	44.3501804
17	FRENCH	45	1	1	447	151.405265
17	FRENCH	45	10	1	447	105.669097
17	FRENCH	45	12	1	447	114.983566
17	FRENCH	45	2	1	447	74.8506286
17	FRENCH	45	24	1	447	89.551533
17	FRENCH	45	3	1	447	108.632976
17	FRENCH	45	32	1	447	87.4153982
17	FRENCH	45	36	1	447	81.6218357
17	FRENCH	45	48	1	447	68.3988006
17	FRENCH	45	6	1	447	96.5941107
17	FRENCH	45	60	1	447	57.9629308
17	FRENCH	45	72	1	447	45.4075388
17	FRENCH	45	84	1	447	42.6100287
18	FRENCH	46	12	1	631	63.4977013
18	FRENCH	46	20	1	631	43.8577821
18	FRENCH	46	24	1	631	61.5179097
18	FRENCH	46	36	1	631	55.8776545
18	FRENCH	46	40	1	631	63.013086
18	FRENCH	46	48	1	631	62.7788067
18	FRENCH	46	60	1	631	56.9075162
18	FRENCH	46	72	1	631	66.0279936
18	FRENCH	46	84	1	631	52.5910972
22	FRENCH	62	12	3	349	39.1555805
22	FRENCH	62	22	3	349	43.2572808
22	FRENCH	62	24	3	349	47.973367
22	FRENCH	62	36	3	349	30.6257901
22	FRENCH	62	44	3	349	43.6090514
22	FRENCH	62	48	3	349	39.9062783
22	FRENCH	62	60	3	349	44.4368438
13	FRENCH	42	18	1	490	73.8926086
13	FRENCH	42	24	1	490	62.6862002
13	FRENCH	42	36	1	490	69.7356468
13	FRENCH	42	48	1	490	61.6758634
13	FRENCH	42	6	1	490	85.1221646
13	FRENCH	42	60	1	490	61.2051523
19	FRENCH	46	12	3	490	55.9280714
19	FRENCH	46	24	3	490	52.9862315
19	FRENCH	46	36	3	490	56.2922662
19	FRENCH	46	8	3	490	51.4211945
19	FRENCH	46	48	3	490	50.1485929
19	FRENCH	46	60	3	490	49.4028001
14	FRENCH	59	12	3	454	45.5311867
14	FRENCH	59	18	3	454	47.2639124
14	FRENCH	59	24	3	454	38.1299263
14	FRENCH	59	36	3	454	31.9356372
14	FRENCH	59	48	3	454	23.5703929
15	FRENCH	46	12	3	455	64.4032045
15	FRENCH	46	14	3	455	64.4032045
15	FRENCH	46	24	3	455	57.5471471
15	FRENCH	46	30	3	455	69.0495704
15	FRENCH	46	36	3	455	68.788058
15	FRENCH	46	48	3	455	76.6165146
15	FRENCH	46	60	3	455	70.4161528
15	FRENCH	46	72	3	455	80.0666339
15	FRENCH	46	84	3	455	57.2451874
clinical donor:S37|recipient:S38 >> Normal	DISCOVERY	33	12	4	1360	67.159649
clinical donor:S37|recipient:S38 >> Normal	DISCOVERY	33	24	4	1360	60.9255916
clinical donor:S20|recipient:S19 >> Normal	DISCOVERY	51	12	4	1077	53.30936
clinical donor:S20|recipient:S19 >> Normal	DISCOVERY	51	24	4	1077	63.6375102
clinical donor:S20|recipient:S19 >> Normal	DISCOVERY	51	36	4	1077	76.3321913
clinical donor:S47|recipient:S48 >> Normal	DISCOVERY	23	12	2	994	42.9630533
clinical donor:S47|recipient:S48 >> Normal	DISCOVERY	23	24	2	994	53.9797439
clinical donor:S15|recipient:S16 >> Normal	DISCOVERY	57	12	6	1554	52.3853468
clinical donor:S15|recipient:S16 >> Normal	DISCOVERY	57	24	6	1554	48.2033634
clinical donor:S15|recipient:S16 >> Normal	DISCOVERY	57	36	6	1554	33.122942
clinical donor:S45|recipient:S46 >> Normal	DISCOVERY	29	12	0	1071	70.5242291
clinical donor:S45|recipient:S46 >> Normal	DISCOVERY	29	24	0	1071	73.6490687
clinical donor:S45|recipient:S46 >> Normal	DISCOVERY	29	36	0	1071	68.5171966
clinical donor:S32|recipient:S31 >> ACR	DISCOVERY	27	12	3	1324	65.2733121
clinical donor:S32|recipient:S31 >> ACR	DISCOVERY	27	24	3	1324	62.8931763
clinical donor:S32|recipient:S31 >> ACR	DISCOVERY	27	36	3	1324	49.2852473
clinical donor:S14|recipient:S13 >> Normal	DISCOVERY	48	12	6	2033	44.2953197
clinical donor:S14|recipient:S13 >> Normal	DISCOVERY	48	36	6	2033	33.3666836
clinical donor:S43|recipient:S44 >> Normal	DISCOVERY	47	12	4	1411	56.4246367
clinical donor:S43|recipient:S44 >> Normal	DISCOVERY	47	24	4	1411	51.2022085
clinical donor:S43|recipient:S44 >> Normal	DISCOVERY	47	36	4	1411	45.4123611
clinical donor:4|recipient:3 >> ACR	VALIDATION	37	12	5	1410	49.6786323
clinical donor:4|recipient:3 >> ACR	VALIDATION	37	24	5	1410	37.1224613
clinical donor:S7|recipient:S8 >> ACR	DISCOVERY	38	12	6	1388	40.6304895
clinical donor:S7|recipient:S8 >> ACR	DISCOVERY	38	24	6	1388	57.1346945
clinical donor:S7|recipient:S8 >> ACR	DISCOVERY	38	36	6	1388	63.546939
clinical donor:S11|recipient:S12 >> ACR	DISCOVERY	59	12	4	1145	47.8682366
clinical donor:S11|recipient:S12 >> ACR	DISCOVERY	59	24	4	1145	55.2888611
clinical donor:S11|recipient:S12 >> ACR	DISCOVERY	59	36	4	1145	52.3488378
clinical donor:8|recipient:7 >> ACR	VALIDATION	25	12	0	830	35.3333221
clinical donor:8|recipient:7 >> ACR	VALIDATION	25	36	0	830	84.2781236
clinical donor:8|recipient:7 >> ACR	VALIDATION	25	48	0	830	69.5009658
clinical donor:6|recipient:5 >> Normal	VALIDATION	49	12	6	1068	33.1620351
clinical donor:6|recipient:5 >> Normal	VALIDATION	49	24	6	1068	39.4232812
clinical donor:6|recipient:5 >> Normal	VALIDATION	49	36	6	1068	27.5521091
clinical donor:6|recipient:5 >> Normal	VALIDATION	49	48	6	1068	40.4776275
clinical donor:6|recipient:5 >> Normal	VALIDATION	49	60	6	1068	30.0941691
clinical donor:18|recipient:17 >> Normal	VALIDATION	52	12	1	873	60.5650052
clinical donor:18|recipient:17 >> Normal	VALIDATION	52	24	1	873	54.2713508
clinical donor:18|recipient:17 >> Normal	VALIDATION	52	36	1	873	49.3955366
clinical donor:16|recipient:15 >> Normal	VALIDATION	35	12	4	1191	47.059465
clinical donor:16|recipient:15 >> Normal	VALIDATION	35	24	4	1191	39.343003
clinical donor:16|recipient:15 >> Normal	VALIDATION	35	36	4	1191	49.5777872
clinical donor:16|recipient:15 >> Normal	VALIDATION	35	48	4	1191	46.5678167
clinical donor:16|recipient:15 >> Normal	VALIDATION	35	60	4	1191	39.7826558
clinical donor:10|recipient:9 >> Normal	VALIDATION	38	12	3	1195	57.4790355
clinical donor:10|recipient:9 >> Normal	VALIDATION	38	24	3	1195	63.0552342
clinical donor:10|recipient:9 >> Normal	VALIDATION	38	36	3	1195	48.5665811
clinical donor:10|recipient:9 >> Normal	VALIDATION	38	60	3	1195	52.4148595
clinical donor:12|recipient:11 >> Normal	VALIDATION	53	12	3	1476	36.2301857
clinical donor:12|recipient:11 >> Normal	VALIDATION	53	24	3	1476	33.0943853
clinical donor:12|recipient:11 >> Normal	VALIDATION	53	36	3	1476	34.6032741
clinical donor:12|recipient:11 >> Normal	VALIDATION	53	48	3	1476	29.7991971
clinical donor:2|recipient:1 >> ACR	VALIDATION	47	12	3	792	29.6145578
clinical donor:2|recipient:1 >> ACR	VALIDATION	47	24	3	792	24.2426031
clinical donor:2|recipient:1 >> ACR	VALIDATION	47	36	3	792	40.5241904
clinical donor:2|recipient:1 >> ACR	VALIDATION	47	60	3	792	40.1877073
clinical donor:28|recipient:27 >> Normal	VALIDATION	32	12	3	749	74.7724403
clinical donor:28|recipient:27 >> Normal	VALIDATION	32	24	3	749	67.2860072
clinical donor:28|recipient:27 >> Normal	VALIDATION	32	36	3	749	61.0332882
clinical donor:28|recipient:27 >> Normal	VALIDATION	32	48	3	749	81.5265977
clinical donor:30|recipient:29 >> Normal	VALIDATION	59	12	1	700	56.5234917
clinical donor:30|recipient:29 >> Normal	VALIDATION	59	24	1	700	61.3179953
clinical donor:30|recipient:29 >> Normal	VALIDATION	59	36	1	700	69.5605868
clinical donor:30|recipient:29 >> Normal	VALIDATION	59	48	1	700	71.9139064
clinical donor:20|recipient:19 >> Normal	VALIDATION	48	12	1	808	69.4174819
clinical donor:20|recipient:19 >> Normal	VALIDATION	48	24	1	808	79.2637425
clinical donor:20|recipient:19 >> Normal	VALIDATION	48	36	1	808	80.9514042
clinical donor:20|recipient:19 >> Normal	VALIDATION	48	48	1	808	54.0641555
clinical donor:20|recipient:19 >> Normal	VALIDATION	48	60	1	808	48.0166173
clinical donor:22|recipient:21 >> Normal	VALIDATION	47	12	2	874	106.105581
clinical donor:22|recipient:21 >> Normal	VALIDATION	47	24	2	874	92.3376867
clinical donor:22|recipient:21 >> Normal	VALIDATION	47	36	2	874	57.4447239
clinical donor:22|recipient:21 >> Normal	VALIDATION	47	48	2	874	73.6428955
clinical donor:24|recipient:23 >> Normal	VALIDATION	40	12	6	1140	53.3577244
clinical donor:24|recipient:23 >> Normal	VALIDATION	40	24	6	1140	57.9500737
clinical donor:24|recipient:23 >> Normal	VALIDATION	40	36	6	1140	55.7518058
clinical donor:24|recipient:23 >> Normal	VALIDATION	40	48	6	1140	48.2661146
clinical donor:26|recipient:25 >> Normal	VALIDATION	46	12	2	949	50.8099759
clinical donor:26|recipient:25 >> Normal	VALIDATION	46	24	2	949	37.6346814
clinical donor:26|recipient:25 >> Normal	VALIDATION	46	36	2	949	42.3315012
clinical donor:26|recipient:25 >> Normal	VALIDATION	46	48	2	949	41.3287126
clinical donor:32|recipient:31 >> Normal	VALIDATION	36	12	5	1051	76.6211001
clinical donor:32|recipient:31 >> Normal	VALIDATION	36	24	5	1051	61.8149286
clinical donor:32|recipient:31 >> Normal	VALIDATION	36	36	5	1051	88.7778957
clinical donor:32|recipient:31 >> Normal	VALIDATION	36	48	5	1051	92.2469802
clinical donor:36|recipient:35 >> Normal	VALIDATION	64	12	2	1164	50.1452778
clinical donor:36|recipient:35 >> Normal	VALIDATION	64	24	2	1164	51.266111
clinical donor:36|recipient:35 >> Normal	VALIDATION	64	36	2	1164	45.6907475
clinical donor:36|recipient:35 >> Normal	VALIDATION	64	48	2	1164	50.9766191
clinical donor:14|recipient:13 >> Normal	VALIDATION	42	12	6	1279	48.1007719
clinical donor:14|recipient:13 >> Normal	VALIDATION	42	24	6	1279	45.2222319
clinical donor:14|recipient:13 >> Normal	VALIDATION	42	36	6	1279	44.6438204
clinical donor:14|recipient:13 >> Normal	VALIDATION	42	48	6	1279	56.4985809
clinical donor:38|recipient:37 >> Normal	VALIDATION	44	12	2	800	35.9999901
clinical donor:38|recipient:37 >> Normal	VALIDATION	44	24	2	800	49.7206207
clinical donor:38|recipient:37 >> Normal	VALIDATION	44	36	2	800	47.6231482
clinical donor:38|recipient:37 >> Normal	VALIDATION	44	48	2	800	47.4877498
clinical donor:44|recipient:43 >> Normal	VALIDATION	56	12	3	1028	48.666969
clinical donor:44|recipient:43 >> Normal	VALIDATION	56	24	3	1028	60.8529328
clinical donor:44|recipient:43 >> Normal	VALIDATION	56	48	3	1028	58.4429088
clinical donor:34|recipient:33 >> ACR	VALIDATION	47	12	3	1630	41.8950474
clinical donor:34|recipient:33 >> ACR	VALIDATION	47	24	3	1630	40.5798839
clinical donor:34|recipient:33 >> ACR	VALIDATION	47	36	3	1630	38.7052264
clinical donor:34|recipient:33 >> ACR	VALIDATION	47	48	3	1630	41.4268237
clinical donor:42|recipient:41 >> Normal	VALIDATION	59	12	5	1263	65.8941915
clinical donor:42|recipient:41 >> Normal	VALIDATION	59	24	5	1263	72.5196858
clinical donor:42|recipient:41 >> Normal	VALIDATION	59	36	5	1263	77.0214539
clinical donor:40|recipient:39 >> ACR	VALIDATION	54	12	5	1299	49.7258601
clinical donor:40|recipient:39 >> ACR	VALIDATION	54	24	5	1299	55.6903193
clinical donor:40|recipient:39 >> ACR	VALIDATION	54	36	5	1299	45.722978
clinical donor:48|recipient:47 >> Normal	VALIDATION	41	12	6	1456	60.9676476
clinical donor:48|recipient:47 >> Normal	VALIDATION	41	24	6	1456	67.7569775
clinical donor:48|recipient:47 >> Normal	VALIDATION	41	36	6	1456	62.92571
clinical donor:46|recipient:45 >> Normal	VALIDATION	54	12	6	1240	52.6850602
clinical donor:46|recipient:45 >> Normal	VALIDATION	54	24	6	1240	56.2526525
clinical donor:46|recipient:45 >> Normal	VALIDATION	54	36	6	1240	54.6083153
